NCasos,Estado,Sexo,Edad,F.I.S,PCR,Procedencia,F.a.M,Fecha
1,Distrito Federal,M,35,22/02/2020,confirmado,Italia,22/02/2020,27.03.2020
2,Sinaloa,M,41,22/02/2020,confirmado,Italia,21/02/2020,27.03.2020
3,Distrito Federal,M,59,23/02/2020,confirmado,Italia,22/02/2020,27.03.2020
4,Coahuila,F,20,27/02/2020,confirmado,Italia,25/02/2020,27.03.2020
5,Chiapas,F,18,25/02/2020,confirmado,Italia,25/02/2020,27.03.2020
6,México,M,71,21/02/2020,confirmado,Italia,21/02/2020,27.03.2020
7,Distrito Federal,M,46,29/02/2020,confirmado,Estados Unidos,29/02/2020,27.03.2020
8,Querétaro,M,43,09/03/2020,confirmado,España,06/03/2020,27.03.2020
9,Distrito Federal,M,41,07/03/2020,confirmado,Estados Unidos,06/03/2020,27.03.2020
10,Distrito Federal,F,30,07/03/2020,confirmado,España,06/03/2020,27.03.2020
11,México,F,64,02/03/2020,confirmado,Estados Unidos,29/02/2020,27.03.2020
12,Nuevo León,M,57,04/03/2020,confirmado,Alemania,03/03/2020,27.03.2020
13,México,F,55,09/03/2020,confirmado,España,09/03/2020,27.03.2020
14,Durango,M,58,06/03/2020,confirmado,España,28/02/2020,27.03.2020
15,Querétaro,F,65,10/03/2020,confirmado,Contacto,Na,27.03.2020
16,Querétaro,M,42,05/03/2020,confirmado,Italia,05/03/2020,27.03.2020
17,Distrito Federal,M,48,10/03/2020,confirmado,España,09/03/2020,27.03.2020
18,Distrito Federal,M,38,10/03/2020,confirmado,España,09/03/2020,27.03.2020
19,Querétaro,F,43,11/03/2020,confirmado,Contacto,Na,27.03.2020
20,Puebla,M,31,05/03/2020,confirmado,España,09/03/2020,27.03.2020
21,Distrito Federal,M,37,11/03/2020,confirmado,Italia,11/03/2020,27.03.2020
22,Yucatán,F,57,07/03/2020,confirmado,España,06/03/2020,27.03.2020
23,Distrito Federal,M,52,08/03/2020,confirmado,España,08/03/2020,27.03.2020
24,Distrito Federal,M,64,10/03/2020,confirmado,Contacto,10/03/2020,27.03.2020
25,Distrito Federal,M,68,04/03/2020,confirmado,España,10/03/2020,27.03.2020
26,Quintana Roo,F,71,01/03/2020,confirmado,Italia,01/03/2020,27.03.2020
27,San Luis Potosí,F,53,11/03/2020,confirmado,España,10/03/2020,27.03.2020
28,Nuevo León,M,73,09/03/2020,confirmado,Estados Unidos,10/03/2020,27.03.2020
29,Nuevo León,M,30,09/03/2020,confirmado,España,07/03/2020,27.03.2020
30,Puebla,M,31,09/03/2020,confirmado,España,08/03/2020,27.03.2020
31,Distrito Federal,F,33,10/03/2020,confirmado,Francia,08/03/2020,27.03.2020
32,Jalisco,F,54,10/03/2020,confirmado,España,04/03/2020,27.03.2020
33,Jalisco,F,64,01/03/2020,confirmado,Alemania,09/03/2020,27.03.2020
34,México,M,61,09/03/2020,confirmado,Estados Unidos,03/03/2020,27.03.2020
35,Distrito Federal,M,45,07/03/2020,confirmado,España,09/03/2020,27.03.2020
36,Distrito Federal,F,62,11/03/2020,confirmado,Estados Unidos,08/03/2020,27.03.2020
37,Distrito Federal,M,72,09/03/2020,confirmado,Estados Unidos,07/03/2020,27.03.2020
38,Distrito Federal,M,41,10/03/2020,confirmado,España,08/03/2020,27.03.2020
39,Puebla,M,30,09/03/2020,confirmado,España,09/03/2020,27.03.2020
40,Distrito Federal,M,38,11/03/2020,confirmado,Contacto,Na,27.03.2020
41,Oaxaca,F,30,09/03/2020,confirmado,España,09/03/2020,27.03.2020
42,Sinaloa,M,25,09/03/2020,confirmado,Estados Unidos,13/03/2020,27.03.2020
43,San Luis Potosí,F,23,07/03/2020,confirmado,España,10/03/2020,27.03.2020
44,Querétaro,F,54,10/03/2020,confirmado,España,10/03/2020,27.03.2020
45,Oaxaca,M,61,10/03/2020,confirmado,Estados Unidos,10/03/2020,27.03.2020
46,Querétaro,F,55,10/03/2020,confirmado,España,10/03/2020,27.03.2020
47,Nuevo León,M,27,11/03/2020,confirmado,España,13/03/2020,27.03.2020
48,Nuevo León,M,46,06/03/2020,confirmado,Estados Unidos,03/03/2020,27.03.2020
49,Guerrero,M,32,12/03/2020,confirmado,Contacto,Na,27.03.2020
50,Durango,M,32,11/03/2020,confirmado,Alemania,11/03/2020,27.03.2020
51,Guerrero,F,22,09/03/2020,confirmado,España,12/03/2020,27.03.2020
52,Puebla,F,27,05/03/2020,confirmado,España,09/03/2020,27.03.2020
53,Distrito Federal,F,70,07/03/2020,confirmado,Estados Unidos,08/03/2020,27.03.2020
54,Distrito Federal,M,32,10/03/2020,confirmado,Contacto,Na,27.03.2020
55,Distrito Federal,M,59,07/03/2020,confirmado,España,04/03/2020,27.03.2020
56,Distrito Federal,M,70,09/03/2020,confirmado,Estados Unidos,08/03/2020,27.03.2020
57,Durango,F,38,09/03/2020,confirmado,España,12/03/2020,27.03.2020
58,Aguascalientes,M,25,14/03/2020,confirmado,España,12/03/2020,27.03.2020
59,Puebla,F,31,10/03/2020,confirmado,Contacto,Na,27.03.2020
60,Querétaro,F,45,13/03/2020,confirmado,España,10/03/2020,27.03.2020
61,México,M,27,13/03/2020,confirmado,Contacto,Na,27.03.2020
62,México,F,47,05/03/2020,confirmado,Estados Unidos,29/02/2020,27.03.2020
63,México,F,59,07/03/2020,confirmado,Francia,08/03/2020,27.03.2020
64,Distrito Federal,M,41,09/03/2020,confirmado,Contacto,Na,27.03.2020
65,Guanajuato,M,39,12/03/2020,confirmado,Alemania,10/03/2020,27.03.2020
66,Nuevo León,M,72,11/03/2020,confirmado,Estados Unidos,10/03/2020,27.03.2020
67,Chihuahua,M,29,12/03/2020,confirmado,Alemania,12/03/2020,27.03.2020
68,Quintana Roo,F,50,08/03/2020,confirmado,España,11/03/2020,27.03.2020
69,Quintana Roo,F,19,13/03/2020,confirmado,España,11/03/2020,27.03.2020
70,Quintana Roo,M,44,11/03/2020,confirmado,Contacto,Na,27.03.2020
71,México,F,49,13/03/2020,confirmado,España,13/03/2020,27.03.2020
72,Puebla,M,32,11/03/2020,confirmado,Estados Unidos,07/03/2020,27.03.2020
73,Nuevo León,F,74,09/03/2020,confirmado,España,12/03/2020,27.03.2020
74,Nuevo León,F,80,09/03/2020,confirmado,España,12/03/2020,27.03.2020
75,Nuevo León,M,71,07/03/2020,confirmado,Estados Unidos,10/03/2020,27.03.2020
76,Nuevo León,M,53,09/03/2020,confirmado,España,10/03/2020,27.03.2020
77,Nuevo León,M,42,02/03/2020,confirmado,Estados Unidos,02/03/2020,27.03.2020
78,México,M,45,11/03/2020,confirmado,Estados Unidos,01/03/2020,27.03.2020
79,Nuevo León,M,33,09/03/2020,confirmado,Estados Unidos,12/03/2020,27.03.2020
80,Nuevo León,F,27,12/03/2020,confirmado,Estados Unidos,12/03/2020,27.03.2020
81,Yucatán,F,31,08/03/2020,confirmado,Francia,10/03/2020,27.03.2020
82,Yucatán,M,21,13/03/2020,confirmado,España,13/03/2020,27.03.2020
83,Tamaulipas,M,55,13/03/2020,confirmado,Singapur,11/03/2020,27.03.2020
84,Puebla,F,27,09/03/2020,confirmado,España,09/03/2020,27.03.2020
85,Puebla,M,31,09/03/2020,confirmado,España,09/03/2020,27.03.2020
86,Yucatán,F,54,11/03/2020,confirmado,España,08/03/2020,27.03.2020
87,Sonora,M,72,11/03/2020,confirmado,Estados Unidos,11/03/2020,27.03.2020
88,Jalisco,M,49,06/03/2020,confirmado,España,04/03/2020,27.03.2020
89,Jalisco,M,41,10/03/2020,confirmado,Estados Unidos,29/02/2020,27.03.2020
90,Jalisco,F,56,11/03/2020,confirmado,Contacto,Na,27.03.2020
91,Yucatán,M,37,09/03/2020,confirmado,Estados Unidos,06/03/2020,27.03.2020
92,Nuevo León,M,19,07/03/2020,confirmado,Contacto,10/03/2020,27.03.2020
93,Nuevo León,M,34,12/03/2020,confirmado,Estados Unidos,07/03/2020,27.03.2020
94,Nuevo León,M,41,10/03/2020,confirmado,Estados Unidos,07/03/2020,27.03.2020
95,Nuevo León,M,46,11/03/2020,confirmado,Estados Unidos,09/03/2020,27.03.2020
96,Nuevo León,M,21,14/03/2020,confirmado,España,15/03/2020,27.03.2020
97,Nuevo León,M,21,15/03/2020,confirmado,España,13/03/2020,27.03.2020
98,Yucatán,F,21,13/03/2020,confirmado,España,13/03/2020,27.03.2020
99,Yucatán,M,25,11/03/2020,confirmado,España,15/03/2020,27.03.2020
100,Jalisco,F,36,10/03/2020,confirmado,Contacto,Na,27.03.2020
101,México,M,39,14/03/2020,confirmado,Contacto,Na,27.03.2020
102,México,M,45,13/03/2020,confirmado,Contacto,Na,27.03.2020
103,México,F,22,16/03/2020,confirmado,España,15/03/2020,27.03.2020
104,México,F,24,09/03/2020,confirmado,Contacto,08/03/2020,27.03.2020
105,México,M,75,06/03/2020,confirmado,Contacto,Na,27.03.2020
106,Distrito Federal,M,53,09/03/2020,confirmado,España,09/03/2020,27.03.2020
107,Distrito Federal,F,53,06/03/2020,confirmado,España,09/03/2020,27.03.2020
108,México,M,56,07/03/2020,confirmado,Estados Unidos,05/03/2020,27.03.2020
109,Veracruz,F,21,03/03/2020,confirmado,España,12/03/2020,27.03.2020
110,México,M,61,08/03/2020,confirmado,España,08/03/2020,27.03.2020
111,México,M,21,07/03/2020,confirmado,España,13/03/2020,27.03.2020
112,México,F,23,07/03/2020,confirmado,España,13/03/2020,27.03.2020
113,Veracruz,M,24,14/03/2020,confirmado,España,14/03/2020,27.03.2020
114,México,M,55,09/03/2020,confirmado,Estados Unidos,09/03/2020,27.03.2020
115,México,M,31,13/03/2020,confirmado,España,13/03/2020,27.03.2020
116,San Luis Potosí,M,32,14/03/2020,confirmado,España,14/03/2020,27.03.2020
117,Puebla,M,25,10/03/2020,confirmado,España,09/03/2020,27.03.2020
118,Yucatán,F,26,08/03/2020,confirmado,España,14/03/2020,27.03.2020
119,Colima,M,46,15/03/2020,confirmado,Alemania,13/03/2020,27.03.2020
120,Baja California,F,54,11/03/2020,confirmado,Estados Unidos,02/03/2020,27.03.2020
121,Baja California,F,57,13/03/2020,confirmado,Contacto,16/03/2020,27.03.2020
122,Distrito Federal,M,47,12/03/2020,confirmado,Estados Unidos,12/03/2020,27.03.2020
123,Distrito Federal,M,43,14/03/2020,confirmado,Estados Unidos,12/03/2020,27.03.2020
124,Hidalgo,M,39,07/03/2020,confirmado,Francia,06/03/2020,27.03.2020
125,Sonora,M,44,12/03/2020,confirmado,Italia,10/03/2020,27.03.2020
126,Tabasco,F,61,14/03/2020,confirmado,Francia,16/03/2020,27.03.2020
127,Puebla,M,64,08/03/2020,confirmado,Estados Unidos,08/03/2020,27.03.2020
128,Sinaloa,F,25,15/03/2020,confirmado,Estados Unidos,17/03/2020,27.03.2020
129,Hidalgo,M,43,08/03/2020,confirmado,Estados Unidos,10/02/2020,27.03.2020
130,San Luis Potosí,M,39,16/03/2020,confirmado,España,14/03/2020,27.03.2020
131,San Luis Potosí,M,31,15/03/2020,confirmado,Francia,14/03/2020,27.03.2020
132,San Luis Potosí,M,44,16/03/2020,confirmado,España,16/03/2020,27.03.2020
133,San Luis Potosí,F,63,15/03/2020,confirmado,España,17/03/2020,27.03.2020
134,Distrito Federal,M,28,16/03/2020,confirmado,Contacto,Na,27.03.2020
135,Puebla,F,24,16/03/2020,confirmado,Contacto,Na,27.03.2020
136,Chiapas,M,63,23/03/2020,confirmado,Estados Unidos,11/03/2020,27.03.2020
137,Distrito Federal,M,35,10/03/2020,confirmado,Estados Unidos,10/03/2020,27.03.2020
138,Guanajuato,F,18,10/03/2020,confirmado,Estados Unidos,13/03/2020,27.03.2020
139,Tamaulipas,F,23,16/03/2020,confirmado,España,12/03/2020,27.03.2020
140,Quintana Roo,M,17,09/03/2020,confirmado,Estados Unidos,09/03/2020,27.03.2020
141,Quintana Roo,M,39,16/03/2020,confirmado,Italia,01/03/2020,27.03.2020
142,Guerrero,M,79,15/03/2020,confirmado,España,13/03/2020,27.03.2020
143,Guanajuato,F,27,14/03/2020,confirmado,España,14/03/2020,27.03.2020
144,Guanajuato,F,52,12/03/2020,confirmado,España,14/03/2020,27.03.2020
145,Quintana Roo,M,42,14/03/2020,confirmado,España,13/03/2020,27.03.2020
146,Querétaro,M,25,08/03/2020,confirmado,España,16/03/2020,27.03.2020
147,México,F,52,10/03/2020,confirmado,España,12/03/2020,27.03.2020
148,Yucatán,F,27,13/03/2020,confirmado,Contacto,Na,27.03.2020
149,Yucatán,M,51,14/03/2020,confirmado,Contacto,Na,27.03.2020
150,Baja California,M,72,09/03/2020,confirmado,Estados Unidos,10/03/2020,27.03.2020
151,Yucatán,M,32,11/03/2020,confirmado,Estados Unidos,Na,27.03.2020
152,Yucatán,M,30,16/03/2020,confirmado,España,11/03/2020,27.03.2020
153,Yucatán,M,45,13/03/2020,confirmado,Estados Unidos,13/03/2020,27.03.2020
154,Quintana Roo,M,45,15/03/2020,confirmado,Estados Unidos,15/03/2020,27.03.2020
155,Jalisco,M,54,13/03/2020,confirmado,Contacto,Na,27.03.2020
156,Jalisco,M,27,13/03/2020,confirmado,España,15/03/2020,27.03.2020
157,Quintana Roo,F,22,16/03/2020,confirmado,España,16/03/2020,27.03.2020
158,Jalisco,F,49,12/03/2020,confirmado,España,09/03/2020,27.03.2020
159,Jalisco,M,19,16/03/2020,confirmado,España,13/03/2020,27.03.2020
160,Guerrero,F,38,13/03/2020,confirmado,Estados Unidos,01/03/2020,27.03.2020
161,Distrito Federal,M,46,12/03/2020,confirmado,Estados Unidos,10/03/2020,27.03.2020
162,Distrito Federal,M,35,11/03/2020,confirmado,Estados Unidos,05/03/2020,27.03.2020
163,Aguascalientes,M,70,15/03/2020,confirmado,Estados Unidos,13/03/2020,27.03.2020
164,Distrito Federal,M,59,13/03/2020,confirmado,Contacto,Na,27.03.2020
165,Aguascalientes,M,50,16/03/2020,confirmado,España,17/03/2020,27.03.2020
166,Veracruz,F,64,18/03/2020,confirmado,España,15/03/2020,27.03.2020
167,Nuevo León,M,35,09/03/2020,confirmado,Estados Unidos,09/03/2020,27.03.2020
168,Nuevo León,M,42,16/03/2020,confirmado,Contacto,Na,27.03.2020
169,Durango,M,74,15/03/2020,confirmado,Estados Unidos,03/03/2020,27.03.2020
170,Morelos,M,37,14/03/2020,confirmado,Estados Unidos,07/03/2020,27.03.2020
171,Querétaro,M,34,15/03/2020,confirmado,Francia,15/03/2020,27.03.2020
172,Veracruz,F,63,14/03/2020,confirmado,España,13/03/2020,27.03.2020
173,Nuevo León,F,29,13/03/2020,confirmado,España,14/03/2020,27.03.2020
174,Morelos,F,54,17/03/2020,confirmado,Estados Unidos,17/03/2020,27.03.2020
175,Jalisco,F,73,14/03/2020,confirmado,Contacto,Na,27.03.2020
176,Jalisco,M,52,14/03/2020,confirmado,Estados Unidos,14/03/2020,27.03.2020
177,Jalisco,M,50,04/03/2020,confirmado,Estados Unidos,07/03/2020,27.03.2020
178,Quintana Roo,M,35,15/03/2020,confirmado,Alemania,14/03/2020,27.03.2020
179,Quintana Roo,F,30,14/03/2020,confirmado,Estados Unidos,14/03/2020,27.03.2020
180,Nuevo León,M,28,14/03/2020,confirmado,Estados Unidos,12/03/2020,27.03.2020
181,Aguascalientes,M,42,10/03/2020,confirmado,España,11/03/2020,27.03.2020
182,Nuevo León,F,48,11/03/2020,confirmado,España,13/03/2020,27.03.2020
183,Jalisco,F,19,11/03/2020,confirmado,Estados Unidos,07/03/2020,27.03.2020
184,Jalisco,F,29,14/03/2020,confirmado,Estados Unidos,07/03/2020,27.03.2020
185,Jalisco,M,41,08/03/2020,confirmado,Estados Unidos,09/03/2020,27.03.2020
186,Jalisco,M,54,07/03/2020,confirmado,Estados Unidos,07/03/2020,27.03.2020
187,Jalisco,F,62,09/03/2020,confirmado,Estados Unidos,23/02/2020,27.03.2020
188,Jalisco,M,42,12/03/2020,confirmado,Estados Unidos,11/03/2020,27.03.2020
189,Jalisco,M,49,13/03/2020,confirmado,Estados Unidos,08/03/2020,27.03.2020
190,Jalisco,M,29,08/03/2020,confirmado,Estados Unidos,07/03/2020,27.03.2020
191,Jalisco,M,19,14/03/2020,confirmado,España,13/03/2020,27.03.2020
192,Jalisco,M,63,14/03/2020,confirmado,Estados Unidos,14/03/2020,27.03.2020
193,Jalisco,F,35,11/03/2020,confirmado,Italia,14/03/2020,27.03.2020
194,Jalisco,M,44,11/03/2020,confirmado,Italia,11/03/2020,27.03.2020
195,Puebla,F,32,15/03/2020,confirmado,España,15/03/2020,27.03.2020
196,Chiapas,M,47,14/03/2020,confirmado,Alemania,13/03/2020,27.03.2020
197,Querétaro,M,51,16/03/2020,confirmado,Estados Unidos,15/03/2020,27.03.2020
198,México,F,33,15/03/2020,confirmado,España,05/03/2020,27.03.2020
199,México,M,31,03/03/2020,confirmado,España,01/03/2020,27.03.2020
200,Baja California,M,62,17/03/2020,confirmado,Contacto,Na,27.03.2020
201,Querétaro,M,34,18/03/2020,confirmado,Francia,16/03/2020,27.03.2020
202,Distrito Federal,F,38,14/03/2020,confirmado,Contacto,Na,27.03.2020
203,México,M,55,11/03/2020,confirmado,Contacto,Na,27.03.2020
204,Nuevo León,M,53,17/03/2020,confirmado,Contacto,Na,27.03.2020
205,Nuevo León,M,58,15/03/2020,confirmado,España,14/03/2020,27.03.2020
206,Nuevo León,M,61,15/03/2020,confirmado,España,14/03/2020,27.03.2020
207,Nuevo León,F,59,17/03/2020,confirmado,Contacto,Na,27.03.2020
208,Tabasco,M,46,09/03/2020,confirmado,Estados Unidos,11/03/2020,27.03.2020
209,Jalisco,F,75,08/03/2020,confirmado,Estados Unidos,14/03/2020,27.03.2020
210,Jalisco,M,80,14/03/2020,confirmado,Estados Unidos,14/03/2020,27.03.2020
211,Nuevo León,F,31,10/03/2020,confirmado,Contacto,10/03/2020,27.03.2020
212,Distrito Federal,M,38,10/03/2020,confirmado,Estados Unidos,07/03/2020,27.03.2020
213,Distrito Federal,F,35,09/03/2020,confirmado,Contacto,Na,27.03.2020
214,Distrito Federal,M,61,16/03/2020,confirmado,España,11/03/2020,27.03.2020
215,Distrito Federal,F,37,14/03/2020,confirmado,Contacto,Na,27.03.2020
216,Distrito Federal,M,43,13/03/2020,confirmado,Contacto,Na,27.03.2020
217,Baja California,M,26,15/03/2020,confirmado,Francia,13/03/2020,27.03.2020
218,Hidalgo,F,57,14/03/2020,confirmado,España,16/03/2020,27.03.2020
219,Puebla,M,21,17/03/2020,confirmado,España,15/03/2020,27.03.2020
220,Baja California,F,34,11/03/2020,confirmado,Estados Unidos,08/03/2020,27.03.2020
221,Distrito Federal,M,0,16/03/2020,confirmado,Contacto,Na,27.03.2020
222,Puebla,M,56,14/03/2020,confirmado,Estados Unidos,07/03/2020,27.03.2020
223,Nayarit,F,48,17/03/2020,confirmado,España,17/03/2020,27.03.2020
224,Puebla,M,24,14/03/2020,confirmado,Estados Unidos,07/03/2020,27.03.2020
225,Chihuahua,F,18,15/03/2020,confirmado,Estados Unidos,14/03/2020,27.03.2020
226,Baja California,M,39,17/03/2020,confirmado,Contacto,Na,27.03.2020
227,Querétaro,F,29,10/03/2020,confirmado,Estados Unidos,01/03/2020,27.03.2020
228,Jalisco,M,77,13/03/2020,confirmado,Contacto,Na,27.03.2020
229,Tabasco,M,33,14/03/2020,confirmado,España,18/03/2020,27.03.2020
230,Aguascalientes,M,44,17/03/2020,confirmado,España,17/03/2020,27.03.2020
231,Jalisco,M,20,17/03/2020,confirmado,Contacto,Na,27.03.2020
232,Zacatecas,M,38,08/03/2020,confirmado,Contacto,Na,27.03.2020
233,Querétaro,M,29,18/03/2020,confirmado,España,16/03/2020,27.03.2020
234,Distrito Federal,M,33,11/03/2020,confirmado,Contacto,Na,27.03.2020
235,Nuevo León,M,32,15/03/2020,confirmado,Estados Unidos,16/03/2020,27.03.2020
236,Nuevo León,F,27,18/03/2020,confirmado,Estados Unidos,14/03/2020,27.03.2020
237,Nuevo León,M,35,17/03/2020,confirmado,Estados Unidos,15/03/2020,27.03.2020
238,Puebla,F,30,16/03/2020,confirmado,Estados Unidos,15/03/2020,27.03.2020
239,Distrito Federal,M,27,15/03/2020,confirmado,Francia,15/03/2020,27.03.2020
240,Distrito Federal,M,47,06/03/2020,confirmado,Estados Unidos,02/03/2020,27.03.2020
241,Distrito Federal,M,71,04/03/2020,confirmado,España,14/03/2020,27.03.2020
242,Distrito Federal,F,25,09/03/2020,confirmado,España,13/03/2020,27.03.2020
243,Distrito Federal,M,43,08/03/2020,confirmado,España,04/03/2020,27.03.2020
244,Distrito Federal,F,31,03/03/2020,confirmado,Alemania,09/03/2020,27.03.2020
245,Veracruz,M,31,16/03/2020,confirmado,España,13/03/2020,27.03.2020
246,Querétaro,M,29,16/03/2020,confirmado,Contacto,Na,27.03.2020
247,Durango,F,68,18/03/2020,confirmado,Contacto,Na,27.03.2020
248,Baja California,F,26,13/03/2020,confirmado,Estados Unidos,16/03/2020,27.03.2020
249,San Luis Potosí,F,20,09/03/2020,confirmado,España,17/03/2020,27.03.2020
250,Distrito Federal,F,54,15/03/2020,confirmado,Contacto,Na,27.03.2020
251,Jalisco,M,58,17/03/2020,confirmado,Estados Unidos,04/03/2020,27.03.2020
252,Baja California,M,35,18/03/2020,confirmado,Estados Unidos,16/03/2020,27.03.2020
253,Veracruz,F,35,14/03/2020,confirmado,Estados Unidos,13/03/2020,27.03.2020
254,Jalisco,M,53,17/03/2020,confirmado,Contacto,Na,27.03.2020
255,Veracruz,M,27,17/03/2020,confirmado,Contacto,16/03/2020,27.03.2020
256,Quintana Roo,M,51,11/03/2020,confirmado,España,16/03/2020,27.03.2020
257,Tamaulipas,F,33,16/03/2020,confirmado,Francia,07/03/2020,27.03.2020
258,San Luis Potosí,M,46,12/03/2020,confirmado,Estados Unidos,12/03/2020,27.03.2020
259,Distrito Federal,M,42,06/03/2020,confirmado,Contacto,Na,27.03.2020
260,Distrito Federal,F,35,16/03/2020,confirmado,Estados Unidos,09/03/2020,27.03.2020
261,Jalisco,M,29,17/03/2020,confirmado,Singapur,09/03/2020,27.03.2020
262,Tabasco,F,37,10/03/2020,confirmado,Estados Unidos,11/03/2020,27.03.2020
263,Distrito Federal,M,47,14/03/2020,confirmado,España,16/03/2020,27.03.2020
264,Distrito Federal,M,34,14/03/2020,confirmado,Francia,12/03/2020,27.03.2020
265,Jalisco,M,55,09/03/2020,confirmado,España,12/03/2020,27.03.2020
266,Distrito Federal,F,40,18/03/2020,confirmado,Contacto,Na,27.03.2020
267,Jalisco,M,58,17/03/2020,confirmado,Contacto,Na,27.03.2020
268,Baja California Sur,M,48,16/03/2020,confirmado,Estados Unidos,14/03/2020,27.03.2020
269,Coahuila,F,41,18/03/2020,confirmado,España,14/03/2020,27.03.2020
270,Chihuahua,M,47,18/03/2020,confirmado,Estados Unidos,13/03/2020,27.03.2020
271,Distrito Federal,F,48,13/03/2020,confirmado,Contacto,Na,27.03.2020
272,Distrito Federal,M,35,08/03/2020,confirmado,España,08/03/2020,27.03.2020
273,Coahuila,M,29,17/03/2020,confirmado,Estados Unidos,15/03/2020,27.03.2020
274,Distrito Federal,M,52,11/03/2020,confirmado,Contacto,Na,27.03.2020
275,Distrito Federal,M,25,13/03/2020,confirmado,Contacto,Na,27.03.2020
276,Michoacán,M,36,09/03/2020,confirmado,España,15/03/2020,27.03.2020
277,Sinaloa,M,55,17/03/2020,confirmado,Contacto,Na,27.03.2020
278,Baja California,M,27,13/03/2020,confirmado,Francia,13/03/2020,27.03.2020
279,Chihuahua,F,19,13/03/2020,confirmado,España,14/03/2020,27.03.2020
280,Distrito Federal,M,37,16/03/2020,confirmado,España,16/03/2020,27.03.2020
281,Chihuahua,F,21,16/03/2020,confirmado,España,14/03/2020,27.03.2020
282,Distrito Federal,M,51,17/03/2020,confirmado,Contacto,08/03/2020,27.03.2020
283,Yucatán,F,40,15/03/2020,confirmado,Contacto,Na,27.03.2020
284,Distrito Federal,M,36,14/03/2020,confirmado,Contacto,Na,27.03.2020
285,Hidalgo,F,55,12/03/2020,confirmado,Contacto,Na,27.03.2020
286,San Luis Potosí,F,27,17/03/2020,confirmado,Estados Unidos,18/03/2020,27.03.2020
287,Jalisco,F,38,15/03/2020,confirmado,Estados Unidos,16/03/2020,27.03.2020
288,San Luis Potosí,M,21,19/03/2020,confirmado,Contacto,18/03/2020,27.03.2020
289,San Luis Potosí,M,34,18/03/2020,confirmado,Francia,05/03/2020,27.03.2020
290,Campeche,M,52,12/03/2020,confirmado,España,18/03/2020,27.03.2020
291,Hidalgo,F,26,18/03/2020,confirmado,Francia,17/03/2020,27.03.2020
292,Tabasco,F,71,17/03/2020,confirmado,España,17/03/2020,27.03.2020
293,Yucatán,F,17,10/03/2020,confirmado,Estados Unidos,08/03/2020,27.03.2020
294,Yucatán,F,19,10/03/2020,confirmado,Estados Unidos,08/03/2020,27.03.2020
295,Yucatán,M,39,14/03/2020,confirmado,Estados Unidos,14/03/2020,27.03.2020
296,Sonora,M,30,18/03/2020,confirmado,Francia,13/03/2020,27.03.2020
297,Michoacán,F,57,15/03/2020,confirmado,Contacto,15/03/2020,27.03.2020
298,Michoacán,M,57,18/03/2020,confirmado,Contacto,15/03/2020,27.03.2020
299,Yucatán,M,31,17/03/2020,confirmado,Contacto,Na,27.03.2020
300,Baja California,F,49,12/03/2020,confirmado,Contacto,Na,27.03.2020
301,Zacatecas,M,39,19/03/2020,confirmado,Contacto,19/03/2020,27.03.2020
302,Colima,F,34,12/03/2020,confirmado,Estados Unidos,11/03/2020,27.03.2020
303,México,M,44,19/02/2020,confirmado,Italia,22/02/2020,27.03.2020
304,México,F,52,10/03/2020,confirmado,España,12/03/2020,27.03.2020
305,Coahuila,M,43,16/03/2020,confirmado,Estados Unidos,13/03/2020,27.03.2020
306,México,M,31,13/03/2020,confirmado,Estados Unidos,07/03/2020,27.03.2020
307,Guanajuato,M,34,16/03/2020,confirmado,Estados Unidos,17/03/2020,27.03.2020
308,Guanajuato,F,58,16/03/2020,confirmado,Francia,17/03/2020,27.03.2020
309,Guanajuato,M,43,18/03/2020,confirmado,Estados Unidos,18/03/2020,27.03.2020
310,Tamaulipas,F,21,16/03/2020,confirmado,España,12/03/2020,27.03.2020
311,Jalisco,M,25,13/03/2020,confirmado,Estados Unidos,06/03/2020,27.03.2020
312,Jalisco,M,40,10/03/2020,confirmado,Estados Unidos,07/03/2020,27.03.2020
313,Jalisco,F,38,11/03/2020,confirmado,Estados Unidos,07/03/2020,27.03.2020
314,Jalisco,M,32,13/03/2020,confirmado,Estados Unidos,02/03/2020,27.03.2020
315,Jalisco,M,30,18/03/2020,confirmado,Estados Unidos,09/03/2020,27.03.2020
316,Coahuila,M,42,18/03/2020,confirmado,Estados Unidos,11/03/2020,27.03.2020
317,Coahuila,M,11,18/03/2020,confirmado,Estados Unidos,11/03/2020,27.03.2020
318,Coahuila,M,53,17/03/2020,confirmado,Estados Unidos,11/03/2020,27.03.2020
319,Coahuila,M,42,18/03/2020,confirmado,Estados Unidos,Na,27.03.2020
320,México,M,46,18/03/2020,confirmado,Contacto,Na,27.03.2020
321,México,M,62,16/03/2020,confirmado,España,19/03/2020,27.03.2020
322,Jalisco,M,24,17/03/2020,confirmado,Estados Unidos,15/03/2020,27.03.2020
323,Yucatán,F,42,18/03/2020,confirmado,Francia,18/03/2020,27.03.2020
324,Coahuila,F,30,13/03/2020,confirmado,Estados Unidos,18/03/2020,27.03.2020
325,Hidalgo,F,40,19/03/2020,confirmado,Contacto,13/03/2020,27.03.2020
326,Nuevo León,M,60,14/03/2020,confirmado,España,13/03/2020,27.03.2020
327,Oaxaca,M,22,16/03/2020,confirmado,Contacto,Na,27.03.2020
328,Nuevo León,M,57,13/03/2020,confirmado,Estados Unidos,12/03/2020,27.03.2020
329,Nuevo León,M,22,14/03/2020,confirmado,Estados Unidos,13/03/2020,27.03.2020
330,Coahuila,M,76,20/03/2020,confirmado,España,14/03/2020,27.03.2020
331,Coahuila,M,42,20/03/2020,confirmado,España,14/03/2020,27.03.2020
332,Coahuila,F,42,20/03/2020,confirmado,España,14/03/2020,27.03.2020
333,Hidalgo,F,19,20/03/2020,confirmado,Contacto,Na,27.03.2020
334,Sonora,M,22,11/03/2020,confirmado,España,17/03/2020,27.03.2020
335,Baja California Sur,F,33,16/03/2020,confirmado,Contacto,07/03/2020,27.03.2020
336,Querétaro,M,37,16/03/2020,confirmado,Contacto,Na,27.03.2020
337,Jalisco,M,55,13/03/2020,confirmado,Contacto,Na,27.03.2020
338,México,M,24,20/03/2020,confirmado,Italia,14/03/2020,27.03.2020
339,México,F,29,20/03/2020,confirmado,España,15/03/2020,27.03.2020
340,México,F,29,12/03/2020,confirmado,Estados Unidos,27/02/2020,27.03.2020
341,Querétaro,F,30,21/03/2020,confirmado,España,15/03/2020,27.03.2020
342,Campeche,F,59,06/03/2020,confirmado,España,15/03/2020,27.03.2020
343,Quintana Roo,M,65,18/03/2020,confirmado,España,15/03/2020,27.03.2020
344,Puebla,M,29,13/03/2020,confirmado,Contacto,Na,27.03.2020
345,Puebla,M,33,13/03/2020,confirmado,Estados Unidos,12/03/2020,27.03.2020
346,México,M,63,12/03/2020,confirmado,España,04/03/2020,27.03.2020
347,Jalisco,M,28,16/03/2020,confirmado,Estados Unidos,06/03/2020,27.03.2020
348,Puebla,F,49,14/03/2020,confirmado,España,04/03/2020,27.03.2020
349,Baja California,M,30,19/03/2020,confirmado,Estados Unidos,09/03/2020,27.03.2020
350,Zacatecas,M,28,18/03/2020,confirmado,España,15/03/2020,27.03.2020
351,México,M,51,05/03/2020,confirmado,Contacto,Na,27.03.2020
352,Distrito Federal,M,38,13/03/2020,confirmado,Contacto,Na,27.03.2020
353,Distrito Federal,M,37,15/03/2020,confirmado,Contacto,16/03/2020,27.03.2020
354,Puebla,F,28,15/03/2020,confirmado,Estados Unidos,17/03/2020,27.03.2020
355,Tabasco,M,30,13/03/2020,confirmado,Estados Unidos,11/03/2020,27.03.2020
356,Quintana Roo,M,60,17/03/2020,confirmado,España,15/03/2020,27.03.2020
357,Quintana Roo,M,46,15/03/2020,confirmado,Contacto,Na,27.03.2020
358,Aguascalientes,M,18,19/03/2020,confirmado,España,16/03/2020,27.03.2020
359,Quintana Roo,F,12,15/03/2020,confirmado,Contacto,Na,27.03.2020
360,Quintana Roo,F,52,17/03/2020,confirmado,España,15/03/2020,27.03.2020
361,Quintana Roo,M,16,13/03/2020,confirmado,Contacto,Na,27.03.2020
362,Jalisco,F,24,14/03/2020,confirmado,Contacto,Na,27.03.2020
363,Jalisco,M,19,16/03/2020,confirmado,España,16/03/2020,27.03.2020
364,Michoacán,F,48,15/03/2020,confirmado,Contacto,15/03/2020,27.03.2020
365,Michoacán,M,58,15/03/2020,confirmado,Contacto,15/03/2020,27.03.2020
366,Quintana Roo,M,44,14/03/2020,confirmado,Contacto,Na,27.03.2020
367,San Luis Potosí,M,37,19/03/2020,confirmado,Estados Unidos,17/03/2020,27.03.2020
368,San Luis Potosí,F,32,18/03/2020,confirmado,Estados Unidos,17/03/2020,27.03.2020
369,San Luis Potosí,M,38,18/03/2020,confirmado,Estados Unidos,17/03/2020,27.03.2020
370,Michoacán,F,50,15/03/2020,confirmado,Contacto,15/03/2020,27.03.2020
371,Michoacán,M,56,15/03/2020,confirmado,Contacto,15/03/2020,27.03.2020
372,Distrito Federal,M,44,11/03/2020,confirmado,España,15/03/2020,27.03.2020
373,San Luis Potosí,M,70,15/03/2020,confirmado,Contacto,Na,27.03.2020
374,México,M,60,14/03/2020,confirmado,España,12/03/2020,27.03.2020
375,Guanajuato,F,20,15/03/2020,confirmado,España,16/03/2020,27.03.2020
376,Guanajuato,F,32,16/03/2020,confirmado,España,16/03/2020,27.03.2020
377,Puebla,F,39,18/03/2020,confirmado,Estados Unidos,13/03/2020,27.03.2020
378,Nuevo León,F,63,13/03/2020,confirmado,Francia,14/03/2020,27.03.2020
379,Baja California,M,51,21/03/2020,confirmado,Contacto,Na,27.03.2020
380,Guerrero,F,36,17/03/2020,confirmado,Contacto,Na,27.03.2020
381,Quintana Roo,F,21,18/03/2020,confirmado,Estados Unidos,18/03/2020,27.03.2020
382,Quintana Roo,F,19,11/03/2020,confirmado,Estados Unidos,09/03/2020,27.03.2020
383,Quintana Roo,M,48,19/03/2020,confirmado,Contacto,13/03/2020,27.03.2020
384,Tamaulipas,M,29,20/03/2020,confirmado,Contacto,Na,27.03.2020
385,Oaxaca,F,34,20/03/2020,confirmado,Francia,17/03/2020,27.03.2020
386,Nuevo León,F,30,17/03/2020,confirmado,Contacto,Na,27.03.2020
387,Nuevo León,M,55,18/03/2020,confirmado,Contacto,Na,27.03.2020
388,Nuevo León,M,32,15/03/2020,confirmado,Contacto,Na,27.03.2020
389,Nuevo León,M,35,17/03/2020,confirmado,Estados Unidos,15/03/2020,27.03.2020
390,Nuevo León,M,39,14/03/2020,confirmado,Contacto,13/03/2020,27.03.2020
391,Distrito Federal,M,77,16/03/2020,confirmado,Contacto,Na,27.03.2020
392,Distrito Federal,F,45,20/03/2020,confirmado,Contacto,Na,27.03.2020
393,Nuevo León,M,37,17/03/2020,confirmado,España,18/03/2020,27.03.2020
394,Distrito Federal,M,52,19/03/2020,confirmado,Contacto,Na,27.03.2020
395,Nuevo León,M,40,11/03/2020,confirmado,Estados Unidos,09/03/2020,27.03.2020
396,Nuevo León,F,66,19/03/2020,confirmado,Contacto,Na,27.03.2020
397,Nuevo León,M,20,15/03/2020,confirmado,Estados Unidos,14/03/2020,27.03.2020
398,Nuevo León,M,21,14/03/2020,confirmado,España,15/03/2020,27.03.2020
399,Nuevo León,F,24,17/03/2020,confirmado,Estados Unidos,16/03/2020,27.03.2020
400,Nuevo León,M,42,13/03/2020,confirmado,Estados Unidos,10/03/2020,27.03.2020
401,Yucatán,M,63,08/03/2020,confirmado,Contacto,Na,27.03.2020
402,Nuevo León,F,27,20/03/2020,confirmado,Estados Unidos,18/03/2020,27.03.2020
403,Nuevo León,M,28,14/03/2020,confirmado,Estados Unidos,15/03/2020,27.03.2020
404,Nuevo León,M,30,15/03/2020,confirmado,Estados Unidos,09/03/2020,27.03.2020
405,Puebla,F,76,17/03/2020,confirmado,Estados Unidos,20/03/2020,27.03.2020
406,Distrito Federal,F,61,16/03/2020,confirmado,Italia,12/03/2020,27.03.2020
407,Nuevo León,F,27,09/03/2020,confirmado,Italia,07/03/2020,27.03.2020
408,Yucatán,M,38,08/03/2020,confirmado,España,04/03/2020,27.03.2020
409,Guerrero,F,74,08/03/2020,confirmado,España,04/03/2020,27.03.2020
410,Puebla,M,51,13/03/2020,confirmado,Contacto,Na,27.03.2020
411,Puebla,F,66,15/03/2020,confirmado,España,09/03/2020,27.03.2020
412,Puebla,M,28,16/03/2020,confirmado,Estados Unidos,15/03/2020,27.03.2020
413,Distrito Federal,F,47,18/03/2020,confirmado,Contacto,Na,27.03.2020
414,Puebla,M,73,16/03/2020,confirmado,España,15/03/2020,27.03.2020
415,Aguascalientes,F,40,18/03/2020,confirmado,Contacto,15/03/2020,27.03.2020
416,Distrito Federal,M,76,10/03/2020,confirmado,Francia,11/03/2020,27.03.2020
417,Guanajuato,F,56,16/03/2020,confirmado,Francia,17/03/2020,27.03.2020
418,Guanajuato,F,53,16/03/2020,confirmado,Francia,17/03/2020,27.03.2020
419,Guanajuato,F,48,21/03/2020,confirmado,Francia,17/03/2020,27.03.2020
420,Aguascalientes,F,47,12/03/2020,confirmado,Contacto,08/03/2020,27.03.2020
421,Distrito Federal,M,46,17/03/2020,confirmado,Estados Unidos,02/03/2020,27.03.2020
422,Michoacán,M,49,15/03/2020,confirmado,España,15/03/2020,27.03.2020
423,Distrito Federal,M,10,13/03/2020,confirmado,Contacto,Na,27.03.2020
424,Distrito Federal,F,88,20/03/2020,confirmado,Contacto,Na,27.03.2020
425,Yucatán,M,28,19/03/2020,confirmado,Francia,15/03/2020,27.03.2020
426,Yucatán,F,30,19/03/2020,confirmado,Francia,18/03/2020,27.03.2020
427,Yucatán,F,40,14/03/2020,confirmado,Contacto,Na,27.03.2020
428,Distrito Federal,F,79,18/03/2020,confirmado,Contacto,Na,27.03.2020
429,Aguascalientes,M,47,18/03/2020,confirmado,Contacto,Na,27.03.2020
430,Distrito Federal,M,38,10/03/2020,confirmado,Contacto,Na,27.03.2020
431,Puebla,F,23,11/03/2020,confirmado,España,15/03/2020,27.03.2020
432,Distrito Federal,M,64,15/03/2020,confirmado,Francia,11/03/2020,27.03.2020
433,Distrito Federal,M,76,21/03/2020,confirmado,Contacto,21/03/2020,27.03.2020
434,Chihuahua,F,18,21/03/2020,confirmado,España,18/03/2020,27.03.2020
435,Nayarit,F,66,19/03/2020,confirmado,Estados Unidos,12/03/2020,27.03.2020
436,México,M,67,13/03/2020,confirmado,Contacto,Na,27.03.2020
437,Puebla,F,69,17/03/2020,confirmado,Contacto,Na,27.03.2020
438,México,F,62,13/03/2020,confirmado,Contacto,Na,27.03.2020
439,Puebla,M,72,16/03/2020,confirmado,Contacto,Na,27.03.2020
440,Puebla,F,38,18/03/2020,confirmado,Estados Unidos,18/03/2020,27.03.2020
441,Oaxaca,F,62,20/03/2020,confirmado,Contacto,21/03/2020,27.03.2020
442,Oaxaca,M,56,20/03/2020,confirmado,Contacto,Na,27.03.2020
443,Oaxaca,F,21,19/03/2020,confirmado,Contacto,Na,27.03.2020
444,Guerrero,F,82,23/03/2020,confirmado,España,13/03/2020,27.03.2020
445,Puebla,F,48,19/03/2020,confirmado,Contacto,Na,27.03.2020
446,Puebla,M,31,13/03/2020,confirmado,España,15/03/2020,27.03.2020
447,Puebla,M,26,12/03/2020,confirmado,Contacto,Na,27.03.2020
448,Yucatán,M,51,18/03/2020,confirmado,España,16/03/2020,27.03.2020
449,Yucatán,F,60,10/03/2020,confirmado,Francia,19/03/2020,27.03.2020
450,Puebla,M,24,20/03/2020,confirmado,Contacto,Na,27.03.2020
451,Guanajuato,F,56,16/03/2020,confirmado,Francia,17/03/2020,27.03.2020
452,Guanajuato,F,22,17/03/2020,confirmado,España,16/03/2020,27.03.2020
453,Guanajuato,M,65,20/03/2020,confirmado,España,14/03/2020,27.03.2020
454,Guanajuato,F,47,16/03/2020,confirmado,Francia,17/03/2020,27.03.2020
455,Guanajuato,M,29,16/03/2020,confirmado,España,16/03/2020,27.03.2020
456,Guanajuato,F,41,18/03/2020,confirmado,España,16/03/2020,27.03.2020
457,Tabasco,F,57,18/03/2020,confirmado,España,18/03/2020,27.03.2020
458,Hidalgo,F,16,20/03/2020,confirmado,Contacto,Na,27.03.2020
459,Hidalgo,M,17,13/03/2020,confirmado,Contacto,Na,27.03.2020
460,Guanajuato,M,24,15/03/2020,confirmado,Estados Unidos,19/03/2020,27.03.2020
461,Jalisco,M,36,15/03/2020,confirmado,Estados Unidos,08/03/2020,27.03.2020
462,Jalisco,F,25,13/03/2020,confirmado,Estados Unidos,06/03/2020,27.03.2020
463,Distrito Federal,F,60,14/03/2020,confirmado,Contacto,Na,27.03.2020
464,Distrito Federal,M,28,02/03/2020,confirmado,Estados Unidos,15/03/2020,27.03.2020
465,Quintana Roo,M,42,21/03/2020,confirmado,Estados Unidos,19/03/2020,27.03.2020
466,Distrito Federal,F,53,10/03/2020,confirmado,Francia,18/03/2020,27.03.2020
467,Jalisco,F,50,12/03/2020,confirmado,España,09/03/2020,27.03.2020
468,Jalisco,F,38,20/03/2020,confirmado,Contacto,23/03/2020,27.03.2020
469,Distrito Federal,M,47,17/03/2020,confirmado,España,14/03/2020,27.03.2020
470,Distrito Federal,M,20,16/03/2020,confirmado,Contacto,16/03/2020,27.03.2020
471,Michoacán,F,49,16/03/2020,confirmado,España,15/03/2020,27.03.2020
472,Distrito Federal,F,29,16/03/2020,confirmado,Estados Unidos,09/03/2020,27.03.2020
473,Tamaulipas,M,75,22/03/2020,confirmado,Contacto,Na,27.03.2020
474,Baja California Sur,M,40,21/03/2020,confirmado,Contacto,Na,27.03.2020
475,Baja California Sur,F,31,21/03/2020,confirmado,Contacto,Na,27.03.2020
476,Jalisco,M,49,12/03/2020,confirmado,Estados Unidos,08/03/2020,27.03.2020
477,México,M,45,16/03/2020,confirmado,Estados Unidos,03/03/2020,27.03.2020
478,Chiapas,M,45,13/03/2020,confirmado,Contacto,Na,27.03.2020
479,Tlaxcala,F,19,16/03/2020,confirmado,Estados Unidos,21/03/2020,27.03.2020
480,Distrito Federal,F,65,16/03/2020,confirmado,España,14/03/2020,27.03.2020
481,Distrito Federal,F,34,19/03/2020,confirmado,Contacto,Na,27.03.2020
482,Morelos,F,35,16/03/2020,confirmado,Estados Unidos,16/03/2020,27.03.2020
483,Aguascalientes,M,53,23/03/2020,confirmado,España,23/03/2020,27.03.2020
484,Distrito Federal,M,45,13/03/2020,confirmado,España,19/03/2020,27.03.2020
485,Baja California,F,50,18/03/2020,confirmado,Contacto,Na,27.03.2020
486,Jalisco,F,33,21/03/2020,confirmado,Contacto,Na,27.03.2020
487,Jalisco,F,20,22/03/2020,confirmado,Contacto,Na,27.03.2020
488,Baja California Sur,M,46,21/03/2020,confirmado,Estados Unidos,20/03/2020,27.03.2020
489,Aguascalientes,F,59,23/03/2020,confirmado,Contacto,Na,27.03.2020
490,Hidalgo,F,24,13/03/2020,confirmado,Contacto,Na,27.03.2020
491,Quintana Roo,M,20,13/03/2020,confirmado,Estados Unidos,21/03/2020,27.03.2020
492,Distrito Federal,M,58,12/03/2020,confirmado,Contacto,Na,27.03.2020
493,Puebla,F,31,16/03/2020,confirmado,España,15/03/2020,27.03.2020
494,Jalisco,M,58,20/03/2020,confirmado,España,17/03/2020,27.03.2020
495,Michoacán,F,69,15/03/2020,confirmado,Contacto,23/03/2020,27.03.2020
496,Aguascalientes,M,60,20/03/2020,confirmado,Francia,12/03/2020,27.03.2020
497,Quintana Roo,F,30,21/03/2020,confirmado,Francia,21/03/2020,27.03.2020
498,Sinaloa,F,47,16/03/2020,confirmado,España,15/03/2020,27.03.2020
499,Jalisco,F,20,20/03/2020,confirmado,Estados Unidos,07/03/2020,27.03.2020
500,Jalisco,M,72,18/03/2020,confirmado,Francia,17/03/2020,27.03.2020
501,Yucatán,M,30,18/03/2020,confirmado,Estados Unidos,14/03/2020,27.03.2020
502,Oaxaca,F,16,23/03/2020,confirmado,Contacto,23/03/2020,27.03.2020
503,Yucatán,F,42,22/03/2020,confirmado,Estados Unidos,14/03/2020,27.03.2020
504,Jalisco,M,54,12/03/2020,confirmado,Estados Unidos,08/03/2020,27.03.2020
505,Querétaro,M,21,22/03/2020,confirmado,España,13/03/2020,27.03.2020
506,México,M,69,18/03/2020,confirmado,España,15/03/2020,27.03.2020
507,Jalisco,M,21,12/03/2020,confirmado,Estados Unidos,07/03/2020,27.03.2020
508,Hidalgo,M,71,16/03/2020,confirmado,Estados Unidos,13/03/2020,27.03.2020
509,Jalisco,F,49,17/03/2020,confirmado,Contacto,Na,27.03.2020
510,Quintana Roo,M,74,15/03/2020,confirmado,Contacto,Na,27.03.2020
511,Quintana Roo,M,51,12/03/2020,confirmado,Estados Unidos,09/03/2020,27.03.2020
512,Jalisco,F,48,06/03/2020,confirmado,Estados Unidos,05/02/2020,27.03.2020
513,Jalisco,F,20,16/03/2020,confirmado,Contacto,Na,27.03.2020
514,Querétaro,F,46,20/03/2020,confirmado,Francia,06/03/2020,27.03.2020
515,Jalisco,M,72,12/03/2020,confirmado,Estados Unidos,06/03/2020,27.03.2020
516,México,F,26,18/03/2020,confirmado,España,21/03/2020,27.03.2020
517,Puebla,F,22,22/03/2020,confirmado,Contacto,Na,27.03.2020
518,Nuevo León,F,30,18/03/2020,confirmado,España,16/03/2019,27.03.2020
519,Puebla,F,47,16/03/2020,confirmado,Estados Unidos,15/03/2020,27.03.2020
520,Puebla,M,42,18/03/2020,confirmado,Contacto,Na,27.03.2020
521,Jalisco,M,50,14/03/2020,confirmado,Contacto,Na,27.03.2020
522,San Luis Potosí,F,33,22/03/2020,confirmado,España,14/03/2020,27.03.2020
523,Puebla,M,48,16/03/2020,confirmado,Estados Unidos,15/03/2020,27.03.2020
524,Sinaloa,F,30,17/03/2020,confirmado,Estados Unidos,15/03/2020,27.03.2020
525,Sinaloa,M,72,14/03/2020,confirmado,Contacto,Na,27.03.2020
526,Coahuila,M,42,19/03/2020,confirmado,Contacto,Na,27.03.2020
527,Nuevo León,F,26,21/03/2020,confirmado,Contacto,Na,27.03.2020
528,Baja California,F,50,15/03/2020,confirmado,Estados Unidos,13/03/2020,27.03.2020
529,Morelos,F,61,23/03/2020,confirmado,Contacto,Na,27.03.2020
530,Sonora,M,44,17/03/2020,confirmado,España,10/03/2020,27.03.2020
531,Tabasco,M,46,20/03/2020,confirmado,Contacto,Na,27.03.2020
532,Nuevo León,M,26,18/03/2020,confirmado,España,16/03/2020,27.03.2020
533,Nuevo León,M,41,09/03/2020,confirmado,Estados Unidos,09/03/2020,27.03.2020
534,Sonora,M,24,17/03/2020,confirmado,Estados Unidos,19/03/2020,27.03.2020
535,Nayarit,M,53,21/03/2020,confirmado,Contacto,24/03/2020,27.03.2020
536,Puebla,M,27,23/03/2020,confirmado,Contacto,Na,27.03.2020
537,Puebla,F,35,21/03/2020,confirmado,Contacto,Na,27.03.2020
538,Nayarit,M,53,24/03/2020,confirmado,Contacto,24/03/2020,27.03.2020
539,Michoacán,F,62,15/03/2020,confirmado,Contacto,15/03/2020,27.03.2020
540,Sonora,F,50,20/03/2020,confirmado,España,16/03/2020,27.03.2020
541,Yucatán,M,53,19/03/2020,confirmado,Contacto,12/03/2020,27.03.2020
542,Querétaro,M,38,14/03/2020,confirmado,Contacto,Na,27.03.2020
543,Aguascalientes,F,74,22/03/2020,confirmado,Contacto,Na,27.03.2020
544,Yucatán,M,23,17/03/2020,confirmado,Francia,21/03/2020,27.03.2020
545,Yucatán,M,58,20/03/2020,confirmado,Contacto,Na,27.03.2020
546,Yucatán,M,67,22/03/2020,confirmado,Contacto,21/03/2020,27.03.2020
547,Sinaloa,M,26,20/03/2020,confirmado,Contacto,Na,27.03.2020
548,Querétaro,M,23,20/03/2020,confirmado,Estados Unidos,17/03/2020,27.03.2020
549,Quintana Roo,M,75,25/03/2020,confirmado,Contacto,20/03/2020,27.03.2020
550,Tabasco,F,28,19/03/2020,confirmado,Contacto,Na,27.03.2020
551,Quintana Roo,F,49,20/03/2020,confirmado,Estados Unidos,20/03/2020,27.03.2020
552,Querétaro,F,62,17/03/2020,confirmado,Contacto,Na,27.03.2020
553,Sonora,F,45,15/03/2020,confirmado,España,16/03/2020,27.03.2020
554,Nayarit,F,32,10/03/2020,confirmado,Francia,18/03/2020,27.03.2020
555,Veracruz,F,26,15/03/2020,confirmado,España,16/03/2020,27.03.2020
556,Nuevo León,F,57,19/03/2020,confirmado,Estados Unidos,08/03/2020,27.03.2020
557,Veracruz,F,33,16/03/2020,confirmado,Estados Unidos,27/02/2020,27.03.2020
558,México,M,42,15/03/2020,confirmado,Estados Unidos,11/03/2020,27.03.2020
559,Distrito Federal,M,37,17/03/2020,confirmado,Contacto,Na,27.03.2020
560,Veracruz,F,40,12/03/2020,confirmado,España,15/03/2020,27.03.2020
561,Veracruz,M,46,15/03/2020,confirmado,España,14/03/2020,27.03.2020
562,Veracruz,M,40,12/03/2020,confirmado,España,15/03/2020,27.03.2020
563,Veracruz,F,39,12/03/2020,confirmado,Estados Unidos,08/03/2020,27.03.2020
564,Veracruz,M,51,19/03/2020,confirmado,España,15/03/2020,27.03.2020
565,Nuevo León,M,40,05/03/2020,confirmado,Estados Unidos,10/03/2020,27.03.2020
566,Guanajuato,M,67,16/03/2020,confirmado,Contacto,16/03/2020,27.03.2020
567,Guanajuato,M,51,20/03/2020,confirmado,España,15/03/2020,27.03.2020
568,México,F,34,13/03/2020,confirmado,España,14/03/2020,27.03.2020
569,Guanajuato,F,28,20/03/2020,confirmado,Contacto,16/03/2020,27.03.2020
570,Zacatecas,F,57,12/03/2020,confirmado,Contacto,29/02/2020,27.03.2020
571,Guanajuato,F,59,20/03/2020,confirmado,Contacto,Na,27.03.2020
572,Guanajuato,M,26,15/03/2020,confirmado,España,14/03/2020,27.03.2020
573,Baja California,M,25,20/03/2020,confirmado,Contacto,21/03/2020,27.03.2020
574,Jalisco,F,19,17/03/2020,confirmado,Francia,11/03/2020,27.03.2020
575,Jalisco,F,19,16/03/2020,confirmado,Estados Unidos,15/03/2020,27.03.2020
576,Baja California,F,41,20/03/2020,confirmado,Estados Unidos,19/03/2020,27.03.2020
577,Baja California Sur,M,44,20/03/2020,confirmado,Estados Unidos,14/03/2020,27.03.2020
578,Baja California,M,30,16/03/2020,confirmado,España,18/03/2020,27.03.2020
579,Puebla,M,50,22/03/2020,confirmado,Contacto,Na,27.03.2020
580,Baja California,F,64,13/03/2020,confirmado,Contacto,Na,27.03.2020
581,Baja California Sur,M,66,22/03/2020,confirmado,Estados Unidos,15/03/2020,27.03.2020
582,Tlaxcala,M,38,16/03/2020,confirmado,Contacto,Na,27.03.2020
583,Puebla,F,60,16/03/2020,confirmado,Estados Unidos,11/03/2020,27.03.2020
584,Distrito Federal,F,55,15/03/2020,confirmado,Contacto,Na,27.03.2020
585,Chiapas,F,32,20/03/2020,confirmado,Estados Unidos,07/03/2020,27.03.2020
586,Coahuila,F,41,21/03/2020,confirmado,Contacto,Na,27.03.2020
587,Tabasco,F,26,16/03/2020,confirmado,Contacto,Na,27.03.2020
588,Oaxaca,F,41,23/03/2020,confirmado,Contacto,Na,27.03.2020
589,México,M,60,13/03/2020,confirmado,Contacto,15/03/2020,27.03.2020
590,Tabasco,F,53,21/03/2020,confirmado,Contacto,Na,27.03.2020
591,Tabasco,M,31,21/03/2020,confirmado,Contacto,Na,27.03.2020
592,Durango,M,25,23/03/2020,confirmado,Estados Unidos,18/03/2020,27.03.2020
593,Tabasco,F,23,15/03/2020,confirmado,Contacto,Na,27.03.2020
594,Tabasco,F,29,13/03/2020,confirmado,Contacto,Na,27.03.2020
595,Distrito Federal,M,49,19/03/2020,confirmado,Contacto,Na,27.03.2020
596,Tabasco,M,67,19/03/2020,confirmado,Contacto,Na,27.03.2020
597,Distrito Federal,F,49,19/03/2020,confirmado,Contacto,Na,27.03.2020
598,Puebla,M,44,18/03/2020,confirmado,Contacto,Na,27.03.2020
599,Oaxaca,F,20,22/03/2020,confirmado,Contacto,19/03/2020,27.03.2020
600,Oaxaca,M,36,21/03/2020,confirmado,Contacto,Na,27.03.2020
601,Puebla,M,27,23/03/2020,confirmado,Estados Unidos,18/03/2020,27.03.2020
602,Tabasco,F,29,24/03/2020,confirmado,España,18/03/2020,27.03.2020
603,Michoacán,F,60,18/03/2020,confirmado,Contacto,23/03/2020,27.03.2020
604,Tlaxcala,M,45,17/03/2020,confirmado,Contacto,Na,27.03.2020
605,Michoacán,F,25,18/03/2020,confirmado,Contacto,Na,27.03.2020
606,Distrito Federal,M,25,19/03/2020,confirmado,España,14/03/2020,27.03.2020
607,Nuevo León,M,42,19/03/2020,confirmado,Francia,20/03/2020,27.03.2020
608,Chiapas,F,32,22/03/2020,confirmado,Estados Unidos,18/03/2020,27.03.2020
609,Distrito Federal,M,36,17/03/2020,confirmado,Contacto,Na,27.03.2020
610,Sinaloa,M,42,22/03/2020,confirmado,Contacto,Na,27.03.2020
611,Durango,M,80,18/03/2020,confirmado,Contacto,Na,27.03.2020
612,Tabasco,M,31,17/03/2020,confirmado,Contacto,Na,27.03.2020
613,Tabasco,F,58,18/03/2020,confirmado,Contacto,Na,27.03.2020
614,Tlaxcala,M,56,22/03/2020,confirmado,Estados Unidos,21/03/2020,27.03.2020
615,México,F,68,17/03/2020,confirmado,Contacto,Na,27.03.2020
616,México,F,49,02/03/2020,confirmado,Contacto,Na,27.03.2020
617,México,F,56,19/03/2020,confirmado,Contacto,Na,27.03.2020
618,México,F,22,24/03/2020,confirmado,Contacto,Na,27.03.2020
619,México,F,22,16/03/2020,confirmado,Contacto,15/03/2020,27.03.2020
620,Nuevo León,M,23,14/03/2020,confirmado,España,16/03/2020,27.03.2020
621,México,M,36,16/03/2020,confirmado,España,03/03/2020,27.03.2020
622,México,F,33,12/03/2020,confirmado,Contacto,Na,27.03.2020
623,México,M,37,21/03/2020,confirmado,Contacto,Na,27.03.2020
624,Hidalgo,F,49,23/03/2020,confirmado,Contacto,23/03/2020,27.03.2020
625,Tabasco,M,51,10/03/2020,confirmado,Contacto,Na,27.03.2020
626,México,F,36,16/03/2020,confirmado,Contacto,Na,27.03.2020
627,México,F,31,21/03/2020,confirmado,Contacto,Na,27.03.2020
628,Tabasco,F,68,18/03/2020,confirmado,Contacto,Na,27.03.2020
629,México,F,48,16/03/2020,confirmado,Contacto,Na,27.03.2020
630,México,M,60,20/03/2020,confirmado,Contacto,Na,27.03.2020
631,Chiapas,M,42,21/03/2020,confirmado,Contacto,18/03/2020,27.03.2020
632,México,F,33,22/03/2020,confirmado,Contacto,Na,27.03.2020
633,San Luis Potosí,M,56,13/03/2020,confirmado,Contacto,Na,27.03.2020
634,México,F,33,10/03/2020,confirmado,Contacto,Na,27.03.2020
635,Tabasco,M,26,09/03/2020,confirmado,Contacto,Na,27.03.2020
636,México,F,28,21/03/2020,confirmado,Contacto,Na,27.03.2020
637,México,F,43,23/03/2020,confirmado,Contacto,Na,27.03.2020
638,México,F,46,23/03/2020,confirmado,Contacto,Na,27.03.2020
639,México,F,28,16/03/2020,confirmado,Contacto,Na,27.03.2020
640,México,F,31,19/03/2020,confirmado,Contacto,Na,27.03.2020
641,México,M,41,24/03/2020,confirmado,Contacto,Na,27.03.2020
642,México,F,44,05/03/2020,confirmado,Contacto,Na,27.03.2020
643,Guanajuato,F,52,17/03/2020,confirmado,Contacto,Na,27.03.2020
644,Yucatán,F,66,21/03/2020,confirmado,Contacto,Na,27.03.2020
645,México,M,37,19/03/2020,confirmado,Contacto,Na,27.03.2020
646,Yucatán,M,72,19/03/2020,confirmado,Contacto,21/03/2020,27.03.2020
647,Yucatán,M,36,19/03/2020,confirmado,Contacto,Na,27.03.2020
648,México,F,51,18/03/2020,confirmado,Contacto,Na,27.03.2020
649,México,M,40,17/03/2020,confirmado,Contacto,Na,27.03.2020
650,Yucatán,F,67,17/03/2020,confirmado,Contacto,21/03/2020,27.03.2020
651,Distrito Federal,M,31,16/03/2020,confirmado,Contacto,Na,27.03.2020
652,Jalisco,M,23,17/03/2020,confirmado,Estados Unidos,18/03/2020,27.03.2020
653,Veracruz,M,33,12/03/2020,confirmado,Estados Unidos,19/03/2020,27.03.2020
654,Veracruz,M,38,17/03/2020,confirmado,Contacto,Na,27.03.2020
655,Veracruz,F,37,18/03/2020,confirmado,Contacto,Na,27.03.2020
656,Distrito Federal,M,41,16/03/2020,confirmado,Estados Unidos,15/03/2020,27.03.2020
657,Jalisco,F,56,16/03/2020,confirmado,Estados Unidos,09/03/2020,27.03.2020
658,Jalisco,M,48,12/03/2020,confirmado,Estados Unidos,09/03/2020,27.03.2020
659,Distrito Federal,F,35,20/03/2020,confirmado,Contacto,Na,27.03.2020
660,Distrito Federal,F,50,01/03/2020,confirmado,Estados Unidos,08/03/2020,27.03.2020
661,Baja California,M,28,18/03/2020,confirmado,Estados Unidos,10/03/2020,27.03.2020
662,Distrito Federal,F,35,15/03/2020,confirmado,Contacto,Na,27.03.2020
663,Querétaro,M,58,17/03/2020,confirmado,Contacto,Na,27.03.2020
664,México,M,42,16/03/2020,confirmado,Contacto,Na,27.03.2020
665,Distrito Federal,M,47,20/03/2020,confirmado,Contacto,06/03/2020,27.03.2020
666,Distrito Federal,F,45,22/03/2020,confirmado,Contacto,Na,27.03.2020
667,Aguascalientes,F,32,23/03/2020,confirmado,Contacto,Na,27.03.2020
668,Nuevo León,M,64,18/03/2020,confirmado,Estados Unidos,11/03/2020,27.03.2020
669,Jalisco,F,50,01/03/2020,confirmado,Estados Unidos,Na,27.03.2020
670,Jalisco,F,49,15/03/2020,confirmado,Contacto,Na,27.03.2020
671,México,F,36,21/03/2020,confirmado,Contacto,Na,27.03.2020
672,México,F,47,20/03/2020,confirmado,Contacto,Na,27.03.2020
673,Jalisco,F,34,16/03/2020,confirmado,Estados Unidos,07/03/2020,27.03.2020
674,Puebla,M,77,21/03/2020,confirmado,España,19/03/2020,27.03.2020
675,Puebla,M,40,18/03/2020,confirmado,Contacto,Na,27.03.2020
676,Guanajuato,F,60,20/03/2020,confirmado,Estados Unidos,17/03/2020,27.03.2020
677,Guanajuato,M,19,20/03/2020,confirmado,Estados Unidos,19/03/2020,27.03.2020
678,Guanajuato,F,63,22/03/2020,confirmado,Contacto,22/03/2020,27.03.2020
679,Guanajuato,F,43,22/03/2020,confirmado,Estados Unidos,24/03/2020,27.03.2020
680,Michoacán,M,64,18/03/2020,confirmado,Contacto,Na,27.03.2020
681,Michoacán,M,71,17/03/2020,confirmado,Contacto,Na,27.03.2020
682,Jalisco,F,65,12/03/2020,confirmado,Estados Unidos,17/03/2020,27.03.2020
683,Aguascalientes,F,43,23/03/2020,confirmado,Contacto,Na,27.03.2020
684,Aguascalientes,F,65,23/03/2020,confirmado,Contacto,Na,27.03.2020
685,Distrito Federal,M,35,20/03/2020,confirmado,Contacto,Na,27.03.2020
686,Nuevo León,F,23,22/03/2020,confirmado,España,16/03/2020,27.03.2020
687,Aguascalientes,M,24,20/03/2020,confirmado,Contacto,Na,27.03.2020
688,Guanajuato,M,21,21/03/2020,confirmado,Contacto,21/03/2020,27.03.2020
689,Jalisco,M,64,24/03/2020,confirmado,Contacto,Na,27.03.2020
690,Jalisco,F,18,22/03/2020,confirmado,Estados Unidos,12/03/2020,27.03.2020
691,Jalisco,F,13,22/03/2020,confirmado,Contacto,Na,27.03.2020
692,Nuevo León,M,28,20/03/2020,confirmado,Contacto,18/03/2020,27.03.2020
693,Michoacán,F,66,22/03/2020,confirmado,Contacto,23/03/2020,27.03.2020
694,Aguascalientes,F,5,25/03/2020,confirmado,Contacto,25/03/2020,27.03.2020
695,Querétaro,F,47,17/03/2020,confirmado,Francia,17/03/2020,27.03.2020
696,Aguascalientes,F,37,25/03/2020,confirmado,Contacto,Na,27.03.2020
697,Baja California Sur,M,59,22/03/2020,confirmado,Contacto,Na,27.03.2020
698,Guanajuato,F,37,20/03/2020,confirmado,Contacto,Na,27.03.2020
699,Puebla,F,39,21/03/2020,confirmado,Contacto,Na,27.03.2020
700,Puebla,F,22,20/03/2020,confirmado,Contacto,Na,27.03.2020
701,San Luis Potosí,F,47,18/03/2020,confirmado,Estados Unidos,18/03/2020,27.03.2020
702,Distrito Federal,M,56,20/03/2020,confirmado,Estados Unidos,13/03/2020,27.03.2020
703,Jalisco,M,21,21/03/2020,confirmado,Contacto,Na,27.03.2020
704,Jalisco,F,52,18/03/2020,confirmado,Contacto,Na,27.03.2020
705,Jalisco,M,50,21/03/2020,confirmado,Contacto,Na,27.03.2020
706,Puebla,F,24,18/03/2020,confirmado,Contacto,Na,27.03.2020
707,Puebla,M,47,21/03/2020,confirmado,Alemania,16/03/2020,27.03.2020
708,Baja California Sur,M,73,24/03/2020,confirmado,Contacto,26/03/2020,27.03.2020
709,Distrito Federal,F,44,20/03/2020,confirmado,Contacto,Na,27.03.2020
710,Nuevo León,M,27,19/03/2020,confirmado,Contacto,15/03/2020,27.03.2020
711,Distrito Federal,M,40,17/03/2020,confirmado,Contacto,Na,27.03.2020
712,Distrito Federal,M,64,09/03/2020,confirmado,Estados Unidos,17/03/2020,27.03.2020
713,Distrito Federal,M,37,18/03/2020,confirmado,Contacto,Na,27.03.2020
714,Distrito Federal,M,65,12/03/2020,confirmado,España,09/03/2020,27.03.2020
715,Distrito Federal,M,76,15/03/2020,confirmado,Contacto,17/03/2020,27.03.2020
716,Distrito Federal,F,59,09/03/2020,confirmado,Contacto,Na,27.03.2020
717,Distrito Federal,M,59,09/03/2020,confirmado,Contacto,Na,27.03.2020
